{"help": "Search a DataStore resource.\n\n    The datastore_search action allows you to search data in a resource.\n    DataStore resources that belong to private CKAN resource can only be\n    read by you if you have access to the CKAN resource and send the appropriate\n    authorization.\n\n    :param resource_id: id or alias of the resource to be searched against\n    :type resource_id: string\n    :param filters: matching conditions to select, e.g {\"key1\": \"a\", \"key2\": \"b\"} (optional)\n    :type filters: dictionary\n    :param q: full text query (optional)\n    :type q: string\n    :param plain: treat as plain text query (optional, default: true)\n    :type plain: bool\n    :param language: language of the full text query (optional, default: english)\n    :type language: string\n    :param limit: maximum number of rows to return (optional, default: 100)\n    :type limit: int\n    :param offset: offset this number of rows (optional)\n    :type offset: int\n    :param fields: fields to return (optional, default: all fields in original order)\n    :type fields: list or comma separated string\n    :param sort: comma separated field names with ordering\n                 e.g.: \"fieldname1, fieldname2 desc\"\n    :type sort: string\n\n    Setting the ``plain`` flag to false enables the entire PostgreSQL `full text search query language`_.\n\n    A listing of all available resources can be found at the alias ``_table_metadata``.\n\n    .. _full text search query language: http://www.postgresql.org/docs/9.1/static/datatype-textsearch.html#DATATYPE-TSQUERY\n\n    If you need to download the full resource, read :ref:`dump`.\n\n    **Results:**\n\n    The result of this action is a dictionary with the following keys:\n\n    :rtype: A dictionary with the following keys\n    :param fields: fields/columns and their extra metadata\n    :type fields: list of dictionaries\n    :param offset: query offset value\n    :type offset: int\n    :param limit: query limit value\n    :type limit: int\n    :param filters: query filters\n    :type filters: list of dictionaries\n    :param total: number of total matching records\n    :type total: int\n    :param records: list of matching results\n    :type records: list of dictionaries\n\n    ", "success": true, "result": {"resource_id": "6f72ea19-d111-49c8-8ce5-57ca8bdc8195", "fields": [{"type": "int4", "id": "_id"}, {"type": "numeric", "id": "ID"}, {"type": "text", "id": "LOCAL_VIA"}, {"type": "text", "id": "LOG1"}, {"type": "text", "id": "LOG2"}, {"type": "numeric", "id": "PREDIAL1"}, {"type": "text", "id": "LOCAL"}, {"type": "text", "id": "TIPO_ACID"}, {"type": "timestamp", "id": "DATA_HORA"}, {"type": "text", "id": "DIA_SEM"}, {"type": "numeric", "id": "FERIDOS"}, {"type": "numeric", "id": "MORTES"}, {"type": "numeric", "id": "MORTE_POST"}, {"type": "numeric", "id": "FATAIS"}, {"type": "numeric", "id": "AUTO"}, {"type": "numeric", "id": "TAXI"}, {"type": "numeric", "id": "LOTACAO"}, {"type": "numeric", "id": "ONIBUS_URB"}, {"type": "numeric", "id": "ONIBUS_INT"}, {"type": "numeric", "id": "CAMINHAO"}, {"type": "numeric", "id": "MOTO"}, {"type": "numeric", "id": "CARROCA"}, {"type": "numeric", "id": "BICICLETA"}, {"type": "numeric", "id": "OUTRO"}, {"type": "text", "id": "TEMPO"}, {"type": "text", "id": "NOITE_DIA"}, {"type": "text", "id": "FONTE"}, {"type": "text", "id": "BOLETIM"}, {"type": "text", "id": "REGIAO"}, {"type": "numeric", "id": "DIA"}, {"type": "numeric", "id": "MES"}, {"type": "numeric", "id": "ANO"}, {"type": "numeric", "id": "FX_HORA"}, {"type": "numeric", "id": "CONT_ACID"}, {"type": "numeric", "id": "CONT_VIT"}, {"type": "numeric", "id": "UPS"}, {"type": "float8", "id": "LATITUDE"}, {"type": "float8", "id": "LONGITUDE"}], "records": [{"TAXI": "0", "FATAIS": "0", "DIA": "27", "FX_HORA": "10", "MOTO": "0", "MES": "6", "ONIBUS_INT": "0", "UPS": "1", "LOG2": "AV BENJAMIN CONSTANT", "LOG1": "AV SAO PEDRO", "CAMINHAO": "0", "CONT_ACID": "1", "TEMPO": "BOM", "NOITE_DIA": "DIA", "FONTE": "EPTC", "ONIBUS_URB": "0", "CARROCA": "0", "DATA_HORA": "2000-06-27T10:30:00", "AUTO": "2", "LONGITUDE": -51.19468527, "LATITUDE": -30.01321722, "BOLETIM": "", "FERIDOS": "0", "LOCAL": "Cruzamento", "ID": "274880", "PREDIAL1": "0", "CONT_VIT": "0", "REGIAO": "NORTE", "MORTES": "0", "DIA_SEM": "TERCA-FEIRA", "ANO": "2000", "LOCAL_VIA": "AV SAO PEDRO & AV BENJAMIN CONSTANT", "MORTE_POST": "0", "BICICLETA": "0", "LOTACAO": "0", "TIPO_ACID": "COLISAO", "OUTRO": "0", "_id": 9448}, {"TAXI": "0", "FATAIS": "0", "DIA": "27", "FX_HORA": "11", "MOTO": "0", "MES": "6", "ONIBUS_INT": "0", "UPS": "1", "LOG2": "AV CEARA", "LOG1": "R DONA MARGARIDA", "CAMINHAO": "1", "CONT_ACID": "1", "TEMPO": "BOM", "NOITE_DIA": "DIA", "FONTE": "EPTC", "ONIBUS_URB": "0", "CARROCA": "0", "DATA_HORA": "2000-06-27T11:30:00", "AUTO": "1", "LONGITUDE": -51.19117089, "LATITUDE": -30.00032323, "BOLETIM": "", "FERIDOS": "0", "LOCAL": "Cruzamento", "ID": "265197", "PREDIAL1": "0", "CONT_VIT": "0", "REGIAO": "NORTE", "MORTES": "0", "DIA_SEM": "TERCA-FEIRA", "ANO": "2000", "LOCAL_VIA": "R DONA MARGARIDA & AV CEARA", "MORTE_POST": "0", "BICICLETA": "0", "LOTACAO": "0", "TIPO_ACID": "ABALROAMENTO", "OUTRO": "0", "_id": 9449}, {"TAXI": "0", "FATAIS": "0", "DIA": "27", "FX_HORA": "11", "MOTO": "0", "MES": "6", "ONIBUS_INT": "0", "UPS": "1", "LOG2": "R FELIPE DE OLIVEIRA", "LOG1": "R VICENTE DA FONTOURA", "CAMINHAO": "0", "CONT_ACID": "1", "TEMPO": "BOM", "NOITE_DIA": "DIA", "FONTE": "EPTC", "ONIBUS_URB": "0", "CARROCA": "0", "DATA_HORA": "2000-06-27T11:45:00", "AUTO": "2", "LONGITUDE": -51.19661206, "LATITUDE": -30.04320932, "BOLETIM": "", "FERIDOS": "0", "LOCAL": "Cruzamento", "ID": "265080", "PREDIAL1": "0", "CONT_VIT": "0", "REGIAO": "LESTE", "MORTES": "0", "DIA_SEM": "TERCA-FEIRA", "ANO": "2000", "LOCAL_VIA": "R VICENTE DA FONTOURA & R FELIPE DE OLIVEIRA", "MORTE_POST": "0", "BICICLETA": "0", "LOTACAO": "0", "TIPO_ACID": "ABALROAMENTO", "OUTRO": "0", "_id": 9450}, {"TAXI": "0", "FATAIS": "0", "DIA": "27", "FX_HORA": "11", "MOTO": "0", "MES": "6", "ONIBUS_INT": "0", "UPS": "5", "LOG2": "", "LOG1": "ESTR JOAO DE OLIVEIRA REMIAO", "CAMINHAO": "0", "CONT_ACID": "1", "TEMPO": "BOM", "NOITE_DIA": "DIA", "FONTE": "DEPTRAN", "ONIBUS_URB": "1", "CARROCA": "0", "DATA_HORA": "2000-06-27T11:50:00", "AUTO": "0", "LONGITUDE": -51.11629362, "LATITUDE": -30.10521017, "BOLETIM": "548200", "FERIDOS": "1", "LOCAL": "Logradouro", "ID": "276443", "PREDIAL1": "4525", "CONT_VIT": "1", "REGIAO": "LESTE", "MORTES": "0", "DIA_SEM": "TERCA-FEIRA", "ANO": "2000", "LOCAL_VIA": "4525 ESTR JOAO DE OLIVEIRA REMIAO", "MORTE_POST": "0", "BICICLETA": "0", "LOTACAO": "0", "TIPO_ACID": "ATROPELAMENTO", "OUTRO": "0", "_id": 9451}, {"TAXI": "0", "FATAIS": "0", "DIA": "27", "FX_HORA": "11", "MOTO": "0", "MES": "6", "ONIBUS_INT": "0", "UPS": "1", "LOG2": "AV GOETHE", "LOG1": "R MOSTARDEIRO", "CAMINHAO": "0", "CONT_ACID": "1", "TEMPO": "BOM", "NOITE_DIA": "DIA", "FONTE": "EPTC", "ONIBUS_URB": "0", "CARROCA": "0", "DATA_HORA": "2000-06-27T11:55:00", "AUTO": "2", "LONGITUDE": -51.20019673, "LATITUDE": -30.02851718, "BOLETIM": "", "FERIDOS": "0", "LOCAL": "Cruzamento", "ID": "267040", "PREDIAL1": "0", "CONT_VIT": "0", "REGIAO": "NORTE", "MORTES": "0", "DIA_SEM": "TERCA-FEIRA", "ANO": "2000", "LOCAL_VIA": "R MOSTARDEIRO & AV GOETHE", "MORTE_POST": "0", "BICICLETA": "0", "LOTACAO": "0", "TIPO_ACID": "COLISAO", "OUTRO": "0", "_id": 9452}], "_links": {"start": "/api/action/datastore_search?limit=5&resource_id=6f72ea19-d111-49c8-8ce5-57ca8bdc8195", "next": "/api/action/datastore_search?offset=5&limit=5&resource_id=6f72ea19-d111-49c8-8ce5-57ca8bdc8195"}, "limit": 5, "total": 18153}}